﻿CourseAssistantID,LastName,FirstName,Position,EmailId
901,Gerber,Mattison,GA,s525698@mail.nwmissouri.edu
902,McBride,Noah,TA,s525432@mail.nwmissouri.edu
903,Sheen,Abigail,GA,s524932@mail.nwmissouri.edu
904,Brown,Michael,GA,s525692@mail.nwmissouri.edu
905,Vinke,Ali,TA,s525723@mail.nwmissouri.edu
906,Dunivan,Sarah,GA,s524696@mail.nwmissouri.edu
907,Dick,Alayna,GA,s525233@mail.nwmissouri.edu
908,Tabor,Hannah,GA,s525443@mail.nwmissouri.edu
909,Henderson,Sebastian,TA,s525692@mail.nwmissouri.edu
910,Grammer,Angel,GA,s525268@mail.nwmissouri.edu
911,Livengood,Levi,TA,s525175@mail.nwmissouri.edu
912,Williams,Ashley ,GA,s525359@mail.nwmissouri.edu
913,Hockman,Christian,GA,s525345@mail.nwmissouri.edu
914,901,Smith,Lewis,GA,s525556@mail.nwmissouri.edu
915,Earl,Mikaela,TA,s525375@mail.nwmissouri.edu
916,Shriver,Kimberly,GA,s525635@mail.nwmissouri.edu
917,Masland,William,TA,s525479@mail.nwmissouri.edu
918,Johnson,Luke,TA,s525456@mail.nwmissouri.edu
919,Clark,David,GA,s525582@mail.nwmissouri.edu